%YAML 1.1
%TAG !u! tag:unity3d.com,2011:
--- !u!114 &11400000
MonoBehaviour:
  m_ObjectHideFlags: 0
  m_CorrespondingSourceObject: {fileID: 0}
  m_PrefabInternal: {fileID: 0}
  m_GameObject: {fileID: 0}
  m_Enabled: 1
  m_EditorHideFlags: 0
  m_Script: {fileID: 11500000, guid: d32c61a1aa014174aaf2657853f64b0b, type: 3}
  m_Name: Theme_2
  m_EditorClassIdentifier: 
  themePrefab: {fileID: 114618854570491496, guid: 6203909d86ed67e4795c058656a7cc9f,
    type: 2}
