%YAML 1.1
%TAG !u! tag:unity3d.com,2011:
--- !u!114 &11400000
MonoBehaviour:
  m_ObjectHideFlags: 0
  m_CorrespondingSourceObject: {fileID: 0}
  m_PrefabInstance: {fileID: 0}
  m_PrefabAsset: {fileID: 0}
  m_GameObject: {fileID: 0}
  m_Enabled: 1
  m_EditorHideFlags: 0
  m_Script: {fileID: 11500000, guid: 5a44dae1f4e64ec09ce39c560f4d4ad3, type: 3}
  m_Name: American
  m_EditorClassIdentifier: 
  _id: _american
  _name: 'American '
  _pawnMovementType: 0
  _isBlackCorners: 1
  _boardSize: 8
  _pawnInitialRowCount: 3
  _allowBackwardCutForPawns: 0
  _continuePawnJumpAtBoardEnd: 1
  _allowPawnCutLead: 1
  _isQueen: 1
  _canLeadMoveMultiBox: 0
  _isLeadCutEndPositionFixed: 1
  _cutOrders: 
